%YAML 1.1
%TAG !u! tag:unity3d.com,2011:
--- !u!1 &158966
GameObject:
  m_ObjectHideFlags: 0
  m_PrefabParentObject: {fileID: 0}
  m_PrefabInternal: {fileID: 100100000}
  serializedVersion: 4
  m_Component:
  - 4: {fileID: 426968}
  - 114: {fileID: 11433462}
  - 114: {fileID: 11435066}
  m_Layer: 0
  m_Name: UDPWheelState
  m_TagString: Untagged
  m_Icon: {fileID: 0}
  m_NavMeshLayer: 0
  m_StaticEditorFlags: 0
  m_IsActive: 1
--- !u!4 &426968
Transform:
  m_ObjectHideFlags: 1
  m_PrefabParentObject: {fileID: 0}
  m_PrefabInternal: {fileID: 100100000}
  m_GameObject: {fileID: 158966}
  m_LocalRotation: {x: 0, y: 0, z: 0, w: 1}
  m_LocalPosition: {x: 1.2700391, y: 1.448, z: -1.496}
  m_LocalScale: {x: 1, y: 1, z: 1}
  m_Children: []
  m_Father: {fileID: 0}
  m_RootOrder: 0
--- !u!114 &11433462
MonoBehaviour:
  m_ObjectHideFlags: 1
  m_PrefabParentObject: {fileID: 0}
  m_PrefabInternal: {fileID: 100100000}
  m_GameObject: {fileID: 158966}
  m_Enabled: 1
  m_EditorHideFlags: 0
  m_Script: {fileID: 11500000, guid: 56e0c2446100dc042836aa385c0fc95a, type: 3}
  m_Name: 
  m_EditorClassIdentifier: 
  _server: {fileID: 0}
  _leftWheelAngle: 0
  _rightWheelAngle: 0
  _tLeftWheelDebug: {fileID: 0}
  _tRightWheelDebug: {fileID: 0}
--- !u!114 &11435066
MonoBehaviour:
  m_ObjectHideFlags: 1
  m_PrefabParentObject: {fileID: 0}
  m_PrefabInternal: {fileID: 100100000}
  m_GameObject: {fileID: 158966}
  m_Enabled: 1
  m_EditorHideFlags: 0
  m_Script: {fileID: 11500000, guid: 445ec6f774c1dad4daa184c1318076fd, type: 3}
  m_Name: 
  m_EditorClassIdentifier: 
  _udpWheelstate: {fileID: 11433462}
  _wheelChair: {fileID: 0}
--- !u!1001 &100100000
Prefab:
  m_ObjectHideFlags: 1
  serializedVersion: 2
  m_Modification:
    m_TransformParent: {fileID: 0}
    m_Modifications: []
    m_RemovedComponents: []
  m_ParentPrefab: {fileID: 0}
  m_RootGameObject: {fileID: 158966}
  m_IsPrefabParent: 1
